<svg xmlns="http://www.w3.org/2000/svg" width="40" height="27" viewBox="0 0 40 27">
    <g fill="none" fill-rule="nonzero">
        <path fill="#FFF" d="M2.688 0h34.624A2.688 2.688 0 0 1 40 2.688v21.624A2.688 2.688 0 0 1 37.312 27H2.688A2.688 2.688 0 0 1 0 24.312V2.688A2.688 2.688 0 0 1 2.688 0z"/>
        <path fill="#FF4B55" d="M2.688 0h34.624A2.688 2.688 0 0 1 40 2.688V14H0V2.688A2.688 2.688 0 0 1 2.688 0z"/>
    </g>
</svg>
